Initialized
Received reply: 01 06 00 00 00 01 0a 48 
Reading register 11 on Arduino 0
Received reply: 00 03 00 0b 00 00 d9 35 
Writing register 1 on Arduino 1
Received reply: 01 06 00 01 00 00 0a d8 
Reading register 12 Arduino 0
Received reply: 00 03 00 0c 03 ff a8 c4 
Writing register 2 on Arduino 1
Received reply: 01 06 00 02 03 ff ba 68 
Reading register 3 on Arduino 1
Received reply: 01 03 00 03 00 00 ca b5 
Reading register 4 on Arduino 1
Received reply: 01 03 00 04 00 00 0b 04 
Reading register 11 on Arduino 0
Received reply: 00 03 00 0b 03 ff 69 75 
Writing register 1 on Arduino 1
Received reply: 01 06 00 01 03 ff ba 98 
Reading register 12 Arduino 0
Received reply: 00 03 00 0c 03 ff a8 c4 
Writing register 2 on Arduino 1
Received reply: 01 06 00 02 03 ff ba 68 
Reading register 3 on Arduino 1
Received reply: 01 03 00 03 00 00 ca b5 
Reading register 4 on Arduino 1
Received reply: 01 03 00 04 01 f4 1c 04 
Reading register 11 on Arduino 0
Received reply: 00 03 00 0b 03 ff 69 75 
Writing register 1 on Arduino 1
Received reply: 01 06 00 01 03 ff ba 98 
Reading register 12 Arduino 0
Received reply: 00 03 00 0c 03 ff a8 c4 
Writing register 2 on Arduino 1
Received reply: 01 06 00 02 03 ff ba 68 
Reading register 3 on Arduino 1
Received reply: 01 03 00 03 02 44 99 b4 
Reading register 4 on Arduino 1
Received reply: 01 03 00 04 02 1c a2 04 
Reading register 11 on Arduino 0
Received reply: 00 03 00 0b 03 ff 69 75 
Writing register 1 on Arduino 1
Received reply: 01 06 00 01 03 ff ba 98 
Reading register 12 Arduino 0
Received reply: 00 03 00 0c 03 ff a8 c4 
Writing register 2 on Arduino 1
Received reply: 01 06 00 02 03 ff ba 68 
Reading register 3 on Arduino 1
Received reply: 01 03 00 03 02 62 43 35 
Reading register 4 on Arduino 1
Received reply: 01 03 00 04 02 08 ad 04 
Reading register 11 on Arduino 0
Received reply: 00 03 00 0b 03 ff 69 75 
Writing register 1 on Arduino 1
Received reply: 01 06 00 01 03 ff ba 98 
Reading register 12 Arduino 0
Received reply: 00 03 00 0c 03 ff a8 c4 
Writing register 2 on Arduino 1
Received reply: 01 06 00 02 03 ff ba 68 
Reading register 3 on Arduino 1
Received reply: 01 03 00 03 02 3a b9 34 
Reading register 4 on Arduino 1
Received reply: 01 03 00 04 02 44 58 05 
Reading register 11 on Arduino 0
Received reply: 00 03 00 0b 03 ff 69 75 
Writing register 1 on Arduino 1
Received reply: 01 06 00 01 03 ff ba 98 
Reading register 12 Arduino 0
Received reply: 00 03 00 0c 03 ff a8 c4 
Writing register 2 on Arduino 1
Received reply: 01 06 00 02 03 ff ba 68 
Reading register 3 on Arduino 1
Received reply: 01 03 00 03 02 80 0a b5 
Reading register 4 on Arduino 1
Received reply: 01 03 00 04 02 76 8d 84 
Reading register 11 on Arduino 0
Received reply: 00 03 00 0b 03 ff 69 75 
Writing register 1 on Arduino 1
Received reply: 01 06 00 01 03 ff ba 98 
Reading register 12 Arduino 0
Received reply: 00 03 00 0c 03 ff a8 c4 
Writing register 2 on Arduino 1
Received reply: 01 06 00 02 03 ff ba 68 
Reading register 3 on Arduino 1
Received reply: 01 03 00 03 02 a8 14 b5 
Reading register 4 on Arduino 1
Received reply: 01 03 00 04 02 94 c4 04 
Reading register 11 on Arduino 0
Received reply: 00 03 00 0b 03 ff 69 75 
Writing register 1 on Arduino 1
Received reply: 01 06 00 01 03 ff ba 98 
Reading register 12 Arduino 0
Received reply: 00 03 00 0c 03 ff a8 c4 
Writing register 2 on Arduino 1
Received reply: 01 06 00 02 03 ff ba 68 
Reading register 3 on Arduino 1
Received reply: 01 03 00 03 02 c6 f8 34 
Reading register 4 on Arduino 1
Received reply: 01 03 00 04 02 e4 20 05 
Reading register 11 on Arduino 0
Received reply: 00 03 00 0b 03 ff 69 75 
Writing register 1 on Arduino 1
Received reply: 01 06 00 01 03 ff ba 98 
Reading register 12 Arduino 0
Received reply: 00 03 00 0c 03 ff a8 c4 
Writing register 2 on Arduino 1
Received reply: 01 06 00 02 03 ff ba 68 
Reading register 3 on Arduino 1
Received reply: 01 03 00 03 02 e4 e1 b4 
Reading register 4 on Arduino 1
Received reply: 01 03 00 04 02 e4 20 05 
Reading register 11 on Arduino 0
Received reply: 00 03 00 0b 03 ff 69 75 
Writing register 1 on Arduino 1
Received reply: 01 06 00 01 03 ff ba 98 
Reading register 12 Arduino 0
Received reply: 00 03 00 0c 03 ff a8 c4 
Writing register 2 on Arduino 1
Received reply: 01 06 00 02 03 ff ba 68 
Reading register 3 on Arduino 1
Received reply: 01 03 00 03 03 02 fb 34 
Reading register 4 on Arduino 1
Received reply: 01 03 00 04 03 16 35 85 
Reading register 11 on Arduino 0
Received reply: 00 03 00 0b 03 ff 69 75 
Writing register 1 on Arduino 1
Received reply: 01 06 00 01 03 ff ba 98 
Reading register 12 Arduino 0
Received reply: 00 03 00 0c 03 ff a8 c4 
Writing register 2 on Arduino 1
Received reply: 01 06 00 02 03 ff ba 68 
Reading register 3 on Arduino 1
Received reply: 01 03 00 03 03 2a e5 34 
Reading register 4 on Arduino 1
Received reply: 01 03 00 04 03 34 2c 05 
Reading register 11 on Arduino 0
Received reply: 00 03 00 0b 03 ff 69 75 
Writing register 1 on Arduino 1
Received reply: 01 06 00 01 03 ff ba 98 
Reading register 12 Arduino 0
Received reply: 00 03 00 0c 03 ff a8 c4 
Writing register 2 on Arduino 1
Received reply: 01 06 00 02 03 ff ba 68 
Reading register 3 on Arduino 1
Received reply: 01 03 00 03 03 34 ed b4 
Reading register 4 on Arduino 1
Received reply: 01 03 00 04 03 5c c2 04 
Reading register 11 on Arduino 0
Received reply: 00 03 00 0b 03 ff 69 75 
Writing register 1 on Arduino 1
Received reply: 01 06 00 01 03 ff ba 98 
Reading register 12 Arduino 0
Received reply: 00 03 00 0c 03 ff a8 c4 
Writing register 2 on Arduino 1
Received reply: 01 06 00 02 03 ff ba 68 
Reading register 3 on Arduino 1
Received reply: 01 03 00 03 03 52 c7 34 
Reading register 4 on Arduino 1
Received reply: 01 03 00 04 03 7a 18 85 
Reading register 11 on Arduino 0
Received reply: 00 03 00 0b 03 ff 69 75 
Writing register 1 on Arduino 1
Received reply: 01 06 00 01 03 ff ba 98 
Reading register 12 Arduino 0
Received reply: 00 03 00 0c 03 ff a8 c4 
Writing register 2 on Arduino 1
Received reply: 01 06 00 02 03 ff ba 68 
Reading register 3 on Arduino 1
Received reply: 01 03 00 03 03 7a d9 34 
Reading register 4 on Arduino 1
Received reply: 01 03 00 04 03 8e 9f 84 
Reading register 11 on Arduino 0
Received reply: 00 03 00 0b 03 ff 69 75 
Writing register 1 on Arduino 1
Received reply: 01 06 00 01 03 ff ba 98 
Reading register 12 Arduino 0
Received reply: 00 03 00 0c 03 ff a8 c4 
Writing register 2 on Arduino 1
Received reply: 01 06 00 02 03 ff ba 68 
Reading register 3 on Arduino 1
Received reply: 01 03 00 03 03 84 59 b5 
Reading register 4 on Arduino 1
Received reply: 01 03 00 04 03 98 51 05 
Reading register 11 on Arduino 0
Received reply: 00 03 00 0b 03 ff 69 75 
Writing register 1 on Arduino 1
Received reply: 01 06 00 01 03 ff ba 98 
Reading register 12 Arduino 0
Received reply: 00 03 00 0c 03 ff a8 c4 
Writing register 2 on Arduino 1
Received reply: 01 06 00 02 03 ff ba 68 
Reading register 3 on Arduino 1
Received reply: 01 03 00 03 03 a2 83 34 
Reading register 4 on Arduino 1
Received reply: 01 03 00 04 03 ac 86 04 
Reading register 11 on Arduino 0
Received reply: 00 03 00 0b 03 ff 69 75 
Writing register 1 on Arduino 1
Received reply: 01 06 00 01 03 ff ba 98 
Reading register 12 Arduino 0
Received reply: 00 03 00 0c 03 ff a8 c4 
Writing register 2 on Arduino 1
Received reply: 01 06 00 02 03 ff ba 68 
Reading register 3 on Arduino 1
Received reply: 01 03 00 03 03 c0 6a b5 
Reading register 4 on Arduino 1
Received reply: 01 03 00 04 03 c0 ab 04 
Reading register 11 on Arduino 0
Received reply: 00 03 00 0b 03 ff 69 75 
Writing register 1 on Arduino 1
Received reply: 01 06 00 01 03 ff ba 98 
Reading register 12 Arduino 0
Received reply: 00 03 00 0c 03 ff a8 c4 
Writing register 2 on Arduino 1
Received reply: 01 06 00 02 03 ff ba 68 
Reading register 3 on Arduino 1
Received reply: 01 03 00 03 03 d4 65 b5 
Reading register 4 on Arduino 1
Received reply: 01 03 00 04 03 de a3 84 
Reading register 11 on Arduino 0
Received reply: 00 03 00 0b 03 ff 69 75 
Writing register 1 on Arduino 1
Received reply: 01 06 00 01 03 ff ba 98 
Reading register 12 Arduino 0
Received reply: 00 03 00 0c 03 ff a8 c4 
Writing register 2 on Arduino 1
Received reply: 01 06 00 02 03 ff ba 68 
Reading register 3 on Arduino 1
Received reply: 01 03 00 03 03 de 62 35 
Reading register 4 on Arduino 1
Received reply: 01 03 00 04 03 f2 7e 85 
Reading register 11 on Arduino 0
Received reply: 00 03 00 0b 03 ff 69 75 
Writing register 1 on Arduino 1
Received reply: 01 06 00 01 03 ff ba 98 
Reading register 12 Arduino 0
Received reply: 00 03 00 0c 03 ff a8 c4 
Writing register 2 on Arduino 1
Received reply: 01 06 00 02 03 ff ba 68 
Reading register 3 on Arduino 1
Received reply: 01 03 00 03 03 fc 7b b5 
Reading register 4 on Arduino 1
Received reply: 01 03 00 04 04 10 07 07 
Reading register 11 on Arduino 0
Received reply: 00 03 00 0b 03 ff 69 75 
Writing register 1 on Arduino 1
Received reply: 01 06 00 01 03 ff ba 98 
Reading register 12 Arduino 0
Received reply: 00 03 00 0c 03 ff a8 c4 
Writing register 2 on Arduino 1
Received reply: 01 06 00 02 03 ff ba 68 
Reading register 3 on Arduino 1
Received reply: 01 03 00 03 04 06 08 37 
Reading register 4 on Arduino 1
Received reply: 01 03 00 04 04 10 07 07 
Reading register 11 on Arduino 0
Received reply: 00 03 00 0b 03 ff 69 75 
Writing register 1 on Arduino 1
Received reply: 01 06 00 01 03 ff ba 98 
Reading register 12 Arduino 0
Received reply: 00 03 00 0c 03 ff a8 c4 
Writing register 2 on Arduino 1
Received reply: 01 06 00 02 03 ff ba 68 
Reading register 3 on Arduino 1
Received reply: 01 03 00 03 04 1a c1 36 
Reading register 4 on Arduino 1
Received reply: 01 03 00 04 04 2e d7 86 
Reading register 11 on Arduino 0
Received reply: 00 03 00 0b 03 ff 69 75 
Writing register 1 on Arduino 1
Received reply: 01 06 00 01 03 ff ba 98 
Reading register 12 Arduino 0
Received reply: 00 03 00 0c 03 ff a8 c4 
Writing register 2 on Arduino 1
Received reply: 01 06 00 02 03 ff ba 68 
Reading register 3 on Arduino 1
Received reply: 01 03 00 03 04 2e 16 37 
Reading register 4 on Arduino 1
Received reply: 01 03 00 04 04 2e d7 86 
Reading register 11 on Arduino 0
Received reply: 00 03 00 0b 03 ff 69 75 
Writing register 1 on Arduino 1
Received reply: 01 06 00 01 03 ff ba 98 
Reading register 12 Arduino 0
Received reply: 00 03 00 0c 03 ff a8 c4 
Writing register 2 on Arduino 1
Received reply: 01 06 00 02 03 ff ba 68 
Reading register 3 on Arduino 1
Received reply: 01 03 00 03 04 38 d8 b6 
Reading register 4 on Arduino 1
Received reply: 01 03 00 04 04 42 fa 86 
Reading register 11 on Arduino 0
Received reply: 00 03 00 0b 03 ff 69 75 
Writing register 1 on Arduino 1
Received reply: 01 06 00 01 03 ff ba 98 
Reading register 12 Arduino 0
Received reply: 00 03 00 0c 03 ff a8 c4 
Writing register 2 on Arduino 1
Received reply: 01 06 00 02 03 ff ba 68 
Reading register 3 on Arduino 1
Received reply: 01 03 00 03 04 4c ff b6 
Reading register 4 on Arduino 1
Received reply: 01 03 00 04 04 6a e4 86 
Reading register 11 on Arduino 0
Received reply: 00 03 00 0b 03 ff 69 75 
Writing register 1 on Arduino 1
Received reply: 01 06 00 01 03 ff ba 98 
Reading register 12 Arduino 0
Received reply: 00 03 00 0c 03 ff a8 c4 
Writing register 2 on Arduino 1
Received reply: 01 06 00 02 03 ff ba 68 
Reading register 3 on Arduino 1
Received reply: 01 03 00 03 04 60 22 b7 
Reading register 4 on Arduino 1
Received reply: 01 03 00 04 04 60 e3 06 
Reading register 11 on Arduino 0
Received reply: 00 03 00 0b 03 ff 69 75 
Writing register 1 on Arduino 1
Received reply: 01 06 00 01 03 ff ba 98 
Reading register 12 Arduino 0
Received reply: 00 03 00 0c 03 ff a8 c4 
Writing register 2 on Arduino 1
Received reply: 01 06 00 02 03 ff ba 68 
Reading register 3 on Arduino 1
Received reply: 01 03 00 03 04 6a 25 37 
Reading register 4 on Arduino 1
Received reply: 01 03 00 04 04 7e eb 86 
Reading register 11 on Arduino 0
Received reply: 00 03 00 0b 03 ff 69 75 
Writing register 1 on Arduino 1
Received reply: 01 06 00 01 03 ff ba 98 
Reading register 12 Arduino 0
Received reply: 00 03 00 0c 03 ff a8 c4 
Writing register 2 on Arduino 1
Received reply: 01 06 00 02 03 ff ba 68 
Reading register 3 on Arduino 1
Received reply: 01 03 00 03 04 74 2d b7 
Reading register 4 on Arduino 1
Received reply: 01 03 00 04 04 74 ec 06 
Reading register 11 on Arduino 0
Received reply: 00 03 00 0b 03 ff 69 75 
Writing register 1 on Arduino 1
Received reply: 01 06 00 01 03 ff ba 98 
Reading register 12 Arduino 0
Received reply: 00 03 00 0c 03 ff a8 c4 
Writing register 2 on Arduino 1
Received reply: 01 06 00 02 03 ff ba 68 
Reading register 3 on Arduino 1
Received reply: 01 03 00 03 04 88 6c b7 
Reading register 4 on Arduino 1
Received reply: 01 03 00 04 04 a6 b1 86 
Reading register 11 on Arduino 0
Received reply: 00 03 00 0b 03 ff 69 75 
Writing register 1 on Arduino 1
Received reply: 01 06 00 01 03 ff ba 98 
Reading register 12 Arduino 0
Received reply: 00 03 00 0c 03 ff a8 c4 
Writing register 2 on Arduino 1
Received reply: 01 06 00 02 03 ff ba 68 
Reading register 3 on Arduino 1
Received reply: 01 03 00 03 04 92 a7 36 
Reading register 4 on Arduino 1
Received reply: 01 03 00 04 04 88 ad 06 
Reading register 11 on Arduino 0
Received reply: 00 03 00 0b 03 ff 69 75 
Writing register 1 on Arduino 1
Received reply: 01 06 00 01 03 ff ba 98 
Reading register 12 Arduino 0
Received reply: 00 03 00 0c 03 ff a8 c4 
Writing register 2 on Arduino 1
Received reply: 01 06 00 02 03 ff ba 68 
Reading register 3 on Arduino 1
Received reply: 01 03 00 03 04 9c 63 b7 
Reading register 4 on Arduino 1
Received reply: 01 03 00 04 04 b0 7f 07 
Reading register 11 on Arduino 0
Received reply: 00 03 00 0b 03 ff 69 75 
Writing register 1 on Arduino 1
Received reply: 01 06 00 01 03 ff ba 98 
Reading register 12 Arduino 0
Received reply: 00 03 00 0c 03 ff a8 c4 
Writing register 2 on Arduino 1
Received reply: 01 06 00 02 03 ff ba 68 
Reading register 3 on Arduino 1
Received reply: 01 03 00 03 04 b0 be b6 
Reading register 4 on Arduino 1
Received reply: 01 03 00 04 04 c4 58 07 
Reading register 11 on Arduino 0
Received reply: 00 03 00 0b 03 ff 69 75 
Writing register 1 on Arduino 1
Received reply: 01 06 00 01 03 ff ba 98 
Reading register 12 Arduino 0
Received reply: 00 03 00 0c 03 ff a8 c4 
Writing register 2 on Arduino 1
Received reply: 01 06 00 02 03 ff ba 68 
Reading register 3 on Arduino 1
Received reply: 01 03 00 03 04 b0 be b6 
Reading register 4 on Arduino 1
Received reply: 01 03 00 04 04 a6 b1 86 
Reading register 11 on Arduino 0
Received reply: 00 03 00 0b 03 ff 69 75 
Writing register 1 on Arduino 1
Received reply: 01 06 00 01 03 ff ba 98 
Reading register 12 Arduino 0
Received reply: 00 03 00 0c 03 ff a8 c4 
Writing register 2 on Arduino 1
Received reply: 01 06 00 02 03 ff ba 68 
Reading register 3 on Arduino 1
Received reply: 01 03 00 03 04 c4 99 b6 
Reading register 4 on Arduino 1
Received reply: 01 03 00 04 04 ce 5f 87 
Reading register 11 on Arduino 0
Received reply: 00 03 00 0b 03 ff 69 75 
Writing register 1 on Arduino 1
Received reply: 01 06 00 01 03 ff ba 98 
Reading register 12 Arduino 0
Received reply: 00 03 00 0c 03 ff a8 c4 
Writing register 2 on Arduino 1
Received reply: 01 06 00 02 03 ff ba 68 
Reading register 3 on Arduino 1
Received reply: 01 03 00 03 04 ce 9e 36 
Reading register 4 on Arduino 1
Received reply: 01 03 00 04 04 e2 82 86 
Reading register 11 on Arduino 0
Received reply: 00 03 00 0b 03 ff 69 75 
Writing register 1 on Arduino 1
Received reply: 01 06 00 01 03 ff ba 98 
Reading register 12 Arduino 0
Received reply: 00 03 00 0c 03 ff a8 c4 
Writing register 2 on Arduino 1
Received reply: 01 06 00 02 03 ff ba 68 
Reading register 3 on Arduino 1
Received reply: 01 03 00 03 04 d8 50 b7 
Reading register 4 on Arduino 1
Received reply: 01 03 00 04 04 d8 91 06 
Reading register 11 on Arduino 0
Received reply: 00 03 00 0b 03 ff 69 75 
Writing register 1 on Arduino 1
Received reply: 01 06 00 01 03 ff ba 98 
Reading register 12 Arduino 0
Received reply: 00 03 00 0c 03 ff a8 c4 
Writing register 2 on Arduino 1
Received reply: 01 06 00 02 03 ff ba 68 
Reading register 3 on Arduino 1
Received reply: 01 03 00 03 04 d8 50 b7 
Reading register 4 on Arduino 1
Received reply: 01 03 00 04 04 ec 46 07 
Reading register 11 on Arduino 0
Received reply: 00 03 00 0b 03 ff 69 75 
Writing register 1 on Arduino 1
Received reply: 01 06 00 01 03 ff ba 98 
Reading register 12 Arduino 0
Received reply: 00 03 00 0c 03 ff a8 c4 
Writing register 2 on Arduino 1
Received reply: 01 06 00 02 03 ff ba 68 
Reading register 3 on Arduino 1
Received reply: 01 03 00 03 04 f6 4c 37 
Reading register 4 on Arduino 1
Received reply: 01 03 00 04 04 f6 8d 86 
Reading register 11 on Arduino 0
Received reply: 00 03 00 0b 03 ff 69 75 
Writing register 1 on Arduino 1
Received reply: 01 06 00 01 03 ff ba 98 
Reading register 12 Arduino 0
Received reply: 00 03 00 0c 03 ff a8 c4 
Writing register 2 on Arduino 1
Received reply: 01 06 00 02 03 ff ba 68 
Reading register 3 on Arduino 1
Received reply: 01 03 00 03 04 ec 87 b6 
Reading register 4 on Arduino 1
Received reply: 01 03 00 04 04 f6 8d 86 
Reading register 11 on Arduino 0
Received reply: 00 03 00 0b 03 ff 69 75 
Writing register 1 on Arduino 1
Received reply: 01 06 00 01 03 ff ba 98 
Reading register 12 Arduino 0
Received reply: 00 03 00 0c 03 ff a8 c4 
Writing register 2 on Arduino 1
Received reply: 01 06 00 02 03 ff ba 68 
Reading register 3 on Arduino 1
Received reply: 01 03 00 03 04 e2 43 37 
Reading register 4 on Arduino 1
Received reply: 01 03 00 04 04 ec 46 07 
Reading register 11 on Arduino 0
Received reply: 00 03 00 0b 03 ff 69 75 
Writing register 1 on Arduino 1
Received reply: 01 06 00 01 03 ff ba 98 
Reading register 12 Arduino 0
Received reply: 00 03 00 0c 03 ff a8 c4 
Writing register 2 on Arduino 1
Received reply: 01 06 00 02 03 ff ba 68 
Reading register 3 on Arduino 1
Received reply: 01 03 00 03 05 00 9a b6 
Reading register 4 on Arduino 1
Received reply: 01 03 00 04 04 f6 8d 86 
Reading register 11 on Arduino 0
Received reply: 00 03 00 0b 03 ff 69 75 
Writing register 1 on Arduino 1
Received reply: 01 06 00 01 03 ff ba 98 
Reading register 12 Arduino 0
Received reply: 00 03 00 0c 03 ff a8 c4 
Writing register 2 on Arduino 1
Received reply: 01 06 00 02 03 ff ba 68 
Reading register 3 on Arduino 1
Received reply: 01 03 00 03 05 0a 9d 36 
Reading register 4 on Arduino 1
Received reply: 01 03 00 04 05 0a 5c 87 
Reading register 11 on Arduino 0
Received reply: 00 03 00 0b 03 ff 69 75 
Writing register 1 on Arduino 1
Received reply: 01 06 00 01 03 ff ba 98 
Reading register 12 Arduino 0
Received reply: 00 03 00 0c 03 ff a8 c4 
Writing register 2 on Arduino 1
Received reply: 01 06 00 02 03 ff ba 68 
Reading register 3 on Arduino 1
Received reply: 01 03 00 03 05 0a 9d 36 
Reading register 4 on Arduino 1
Received reply: 01 03 00 04 05 00 5b 07 
Reading register 11 on Arduino 0
Received reply: 00 03 00 0b 03 ff 69 75 
Writing register 1 on Arduino 1
Received reply: 01 06 00 01 03 ff ba 98 
Reading register 12 Arduino 0
Received reply: 00 03 00 0c 03 ff a8 c4 
Writing register 2 on Arduino 1
Received reply: 01 06 00 02 03 ff ba 68 
Reading register 3 on Arduino 1
Received reply: 01 03 00 03 05 14 95 b6 
Reading register 4 on Arduino 1
Received reply: 01 03 00 04 05 32 8e 86 
Reading register 11 on Arduino 0
Received reply: 00 03 00 0b 03 ff 69 75 
Writing register 1 on Arduino 1
Received reply: 01 06 00 01 03 ff ba 98 
Reading register 12 Arduino 0
Received reply: 00 03 00 0c 03 ff a8 c4 
Writing register 2 on Arduino 1
Received reply: 01 06 00 02 03 ff ba 68 
Reading register 3 on Arduino 1
Received reply: 01 03 00 03 05 1e 92 36 
Reading register 4 on Arduino 1
Received reply: 01 03 00 04 05 0a 5c 87 
Reading register 11 on Arduino 0
Received reply: 00 03 00 0b 03 ff 69 75 
Writing register 1 on Arduino 1
Received reply: 01 06 00 01 03 ff ba 98 
Reading register 12 Arduino 0
Received reply: 00 03 00 0c 03 ff a8 c4 
Writing register 2 on Arduino 1
Received reply: 01 06 00 02 03 ff ba 68 
Reading register 3 on Arduino 1
Received reply: 01 03 00 03 05 1e 92 36 
Reading register 4 on Arduino 1
Received reply: 01 03 00 04 05 1e 53 87 
Reading register 11 on Arduino 0
Received reply: 00 03 00 0b 03 ff 69 75 
Writing register 1 on Arduino 1
Received reply: 01 06 00 01 03 ff ba 98 
Reading register 12 Arduino 0
Received reply: 00 03 00 0c 03 ff a8 c4 
Writing register 2 on Arduino 1
Received reply: 01 06 00 02 03 ff ba 68 
Reading register 3 on Arduino 1
Received reply: 01 03 00 03 05 32 4f 37 
Reading register 4 on Arduino 1
Received reply: 01 03 00 04 05 28 45 07 
Reading register 11 on Arduino 0
Received reply: 00 03 00 0b 03 ff 69 75 
Writing register 1 on Arduino 1
Received reply: 01 06 00 01 03 ff ba 98 
Reading register 12 Arduino 0
Received reply: 00 03 00 0c 03 ff a8 c4 
Writing register 2 on Arduino 1
Received reply: 01 06 00 02 03 ff ba 68 
Reading register 3 on Arduino 1
Received reply: 01 03 00 03 05 50 a6 b6 
Reading register 4 on Arduino 1
Received reply: 01 03 00 04 05 3c 4a 07 
Reading register 11 on Arduino 0
Received reply: 00 03 00 0b 03 ff 69 75 
Writing register 1 on Arduino 1
Received reply: 01 06 00 01 03 ff ba 98 
Reading register 12 Arduino 0
Received reply: 00 03 00 0c 03 ff a8 c4 
Writing register 2 on Arduino 1
Received reply: 01 06 00 02 03 ff ba 68 
Reading register 3 on Arduino 1
Received reply: 01 03 00 03 05 78 b8 b6 
Reading register 4 on Arduino 1
Received reply: 01 03 00 04 05 6e b7 86 
Reading register 11 on Arduino 0
Received reply: 00 03 00 0b 03 ff 69 75 
Writing register 1 on Arduino 1
Received reply: 01 06 00 01 03 ff ba 98 
Reading register 12 Arduino 0
Received reply: 00 03 00 0c 03 ff a8 c4 
Writing register 2 on Arduino 1
Received reply: 01 06 00 02 03 ff ba 68 
Reading register 3 on Arduino 1
Received reply: 01 03 00 03 05 1e 92 36 
Reading register 4 on Arduino 1
Received reply: 01 03 00 04 05 3c 4a 07 
Reading register 11 on Arduino 0
Received reply: 00 03 00 0b 03 ff 69 75 
Writing register 1 on Arduino 1
Received reply: 01 06 00 01 03 ff ba 98 
Reading register 12 Arduino 0
Received reply: 00 03 00 0c 03 ff a8 c4 
Writing register 2 on Arduino 1
Received reply: 01 06 00 02 03 ff ba 68 
Reading register 3 on Arduino 1
Received reply: 01 03 00 03 05 3c 8b b6 
Reading register 4 on Arduino 1
Received reply: 01 03 00 04 05 3c 4a 07 
Reading register 11 on Arduino 0
Received reply: 00 03 00 0b 03 ff 69 75 
Writing register 1 on Arduino 1
Received reply: 01 06 00 01 03 ff ba 98 
Reading register 12 Arduino 0
Received reply: 00 03 00 0c 03 ff a8 c4 
Writing register 2 on Arduino 1
Received reply: 01 06 00 02 03 ff ba 68 
Reading register 3 on Arduino 1
Received reply: 01 03 00 03 05 46 68 37 
Reading register 4 on Arduino 1
Received reply: 01 03 00 04 05 3c 4a 07 
Reading register 11 on Arduino 0
Received reply: 00 03 00 0b 03 ff 69 75 
Writing register 1 on Arduino 1
Received reply: 01 06 00 01 03 ff ba 98 
Reading register 12 Arduino 0
Received reply: 00 03 00 0c 03 ff a8 c4 
Writing register 2 on Arduino 1
Received reply: 01 06 00 02 03 ff ba 68 
Reading register 3 on Arduino 1
Received reply: 01 03 00 03 05 3c 8b b6 
Reading register 4 on Arduino 1
Received reply: 01 03 00 04 05 5a 60 87 
Reading register 11 on Arduino 0
Received reply: 00 03 00 0b 03 ff 69 75 
Writing register 1 on Arduino 1
Received reply: 01 06 00 01 03 ff ba 98 
Reading register 12 Arduino 0
Received reply: 00 03 00 0c 03 ff a8 c4 
Writing register 2 on Arduino 1
Received reply: 01 06 00 02 03 ff ba 68 
Reading register 3 on Arduino 1
Received reply: 01 03 00 03 05 46 68 37 
Reading register 4 on Arduino 1
Received reply: 01 03 00 04 05 50 67 07 
Reading register 11 on Arduino 0
Received reply: 00 03 00 0b 03 ff 69 75 
Writing register 1 on Arduino 1
Received reply: 01 06 00 01 03 ff ba 98 
Reading register 12 Arduino 0
Received reply: 00 03 00 0c 03 ff a8 c4 
Writing register 2 on Arduino 1
Received reply: 01 06 00 02 03 ff ba 68 
Reading register 3 on Arduino 1
Received reply: 01 03 00 03 05 50 a6 b6 
Reading register 4 on Arduino 1
Received reply: 01 03 00 04 05 64 b0 06 
Reading register 11 on Arduino 0
Received reply: 00 03 00 0b 03 ff 69 75 
Writing register 1 on Arduino 1
Received reply: 01 06 00 01 03 ff ba 98 
Reading register 12 Arduino 0
Received reply: 00 03 00 0c 03 ff a8 c4 
Writing register 2 on Arduino 1
Received reply: 01 06 00 02 03 ff ba 68 
Reading register 3 on Arduino 1
Received reply: 01 03 00 03 05 5a a1 36 
Reading register 4 on Arduino 1
Received reply: 01 03 00 04 05 46 a9 86 
Reading register 11 on Arduino 0
Received reply: 00 03 00 0b 03 ff 69 75 
Writing register 1 on Arduino 1
Received reply: 01 06 00 01 03 ff ba 98 
Reading register 12 Arduino 0
Received reply: 00 03 00 0c 03 ff a8 c4 
Writing register 2 on Arduino 1
Received reply: 01 06 00 02 03 ff ba 68 
Reading register 3 on Arduino 1
Received reply: 01 03 00 03 05 50 a6 b6 
Reading register 4 on Arduino 1
Received reply: 01 03 00 04 05 5a 60 87 
Reading register 11 on Arduino 0
Received reply: 00 03 00 0b 03 ff 69 75 
Writing register 1 on Arduino 1
Received reply: 01 06 00 01 03 ff ba 98 
Reading register 12 Arduino 0
Received reply: 00 03 00 0c 03 ff a8 c4 
Writing register 2 on Arduino 1
Received reply: 01 06 00 02 03 ff ba 68 
Reading register 3 on Arduino 1
Received reply: 01 03 00 03 05 64 71 b7 
Reading register 4 on Arduino 1
Received reply: 01 03 00 04 05 64 b0 06 
Reading register 11 on Arduino 0
Received reply: 00 03 00 0b 03 ff 69 75 
Writing register 1 on Arduino 1
Received reply: 01 06 00 01 03 ff ba 98 
Reading register 12 Arduino 0
Received reply: 00 03 00 0c 03 ff a8 c4 
Writing register 2 on Arduino 1
Received reply: 01 06 00 02 03 ff ba 68 
Reading register 3 on Arduino 1
Received reply: 01 03 00 03 05 64 71 b7 
Reading register 4 on Arduino 1
Received reply: 01 03 00 04 05 6e b7 86 
Reading register 11 on Arduino 0
Received reply: 00 03 00 0b 03 ff 69 75 
Writing register 1 on Arduino 1
Received reply: 01 06 00 01 03 ff ba 98 
Reading register 12 Arduino 0
Received reply: 00 03 00 0c 03 ff a8 c4 
Writing register 2 on Arduino 1
Received reply: 01 06 00 02 03 ff ba 68 
Reading register 3 on Arduino 1
Received reply: 01 03 00 03 05 50 a6 b6 
Reading register 4 on Arduino 1
Received reply: 01 03 00 04 05 64 b0 06 
Reading register 11 on Arduino 0
Received reply: 00 03 00 0b 03 ff 69 75 
Writing register 1 on Arduino 1
Received reply: 01 06 00 01 03 ff ba 98 
Reading register 12 Arduino 0
Received reply: 00 03 00 0c 03 ff a8 c4 
Writing register 2 on Arduino 1
Received reply: 01 06 00 02 03 ff ba 68 
Reading register 3 on Arduino 1
Received reply: 01 03 00 03 05 64 71 b7 
Reading register 4 on Arduino 1
Received reply: 01 03 00 04 05 64 b0 06 
Reading register 11 on Arduino 0
Received reply: 00 03 00 0b 03 ff 69 75 
Writing register 1 on Arduino 1
Received reply: 01 06 00 01 03 ff ba 98 
Reading register 12 Arduino 0
Received reply: 00 03 00 0c 03 ff a8 c4 
Writing register 2 on Arduino 1
Received reply: 01 06 00 02 03 ff ba 68 
Reading register 3 on Arduino 1
Received reply: 01 03 00 03 05 64 71 b7 
Reading register 4 on Arduino 1
Received reply: 01 03 00 04 05 5a 60 87 
Reading register 11 on Arduino 0
Received reply: 00 03 00 0b 03 ff 69 75 
Writing register 1 on Arduino 1
Received reply: 01 06 00 01 03 ff ba 98 
Reading register 12 Arduino 0
Received reply: 00 03 00 0c 03 ff a8 c4 
Writing register 2 on Arduino 1
Received reply: 01 06 00 02 03 ff ba 68 
Reading register 3 on Arduino 1
Received reply: 01 03 00 03 05 78 b8 b6 
Reading register 4 on Arduino 1
Received reply: 01 03 00 04 05 78 79 07 
Reading register 11 on Arduino 0
Received reply: 00 03 00 0b 03 ff 69 75 
Writing register 1 on Arduino 1
Received reply: 01 06 00 01 03 ff ba 98 
Reading register 12 Arduino 0
Received reply: 00 03 00 0c 03 ff a8 c4 
Writing register 2 on Arduino 1
Received reply: 01 06 00 02 03 ff ba 68 
Reading register 3 on Arduino 1
Received reply: 01 03 00 03 05 64 71 b7 
Reading register 4 on Arduino 1
Received reply: 01 03 00 04 05 6e b7 86 
Reading register 11 on Arduino 0
Received reply: 00 03 00 0b 03 ff 69 75 
Writing register 1 on Arduino 1
Received reply: 01 06 00 01 03 ff ba 98 
Reading register 12 Arduino 0
Received reply: 00 03 00 0c 03 ff a8 c4 
Writing register 2 on Arduino 1
Received reply: 01 06 00 02 03 ff ba 68 
Reading register 3 on Arduino 1
Received reply: 01 03 00 03 05 64 71 b7 
Reading register 4 on Arduino 1
Received reply: 01 03 00 04 05 6e b7 86 
Reading register 11 on Arduino 0
Received reply: 00 03 00 0b 03 ff 69 75 
Writing register 1 on Arduino 1
Received reply: 01 06 00 01 03 ff ba 98 
Reading register 12 Arduino 0
Received reply: 00 03 00 0c 03 ff a8 c4 
Writing register 2 on Arduino 1
Received reply: 01 06 00 02 03 ff ba 68 
Reading register 3 on Arduino 1
Received reply: 01 03 00 03 05 64 71 b7 
Reading register 4 on Arduino 1
Received reply: 01 03 00 04 05 78 79 07 
Reading register 11 on Arduino 0
Received reply: 00 03 00 0b 03 ff 69 75 
Writing register 1 on Arduino 1
Received reply: 01 06 00 01 03 ff ba 98 
Reading register 12 Arduino 0
Received reply: 00 03 00 0c 03 ff a8 c4 
Writing register 2 on Arduino 1
Received reply: 01 06 00 02 03 ff ba 68 
Reading register 3 on Arduino 1
Received reply: 01 03 00 03 05 78 b8 b6 
Reading register 4 on Arduino 1
Received reply: 01 03 00 04 05 6e b7 86 
Reading register 11 on Arduino 0
Received reply: 00 03 00 0b 03 ff 69 75 
Writing register 1 on Arduino 1
Received reply: 01 06 00 01 03 ff ba 98 
Reading register 12 Arduino 0
Received reply: 00 03 00 0c 03 ff a8 c4 
Writing register 2 on Arduino 1
Received reply: 01 06 00 02 03 ff ba 68 
Reading register 3 on Arduino 1
Received reply: 01 03 00 03 05 78 b8 b6 
Reading register 4 on Arduino 1
Received reply: 01 03 00 04 05 64 b0 06 
Reading register 11 on Arduino 0
Received reply: 00 03 00 0b 03 ff 69 75 
Writing register 1 on Arduino 1
Received reply: 01 06 00 01 03 ff ba 98 
Reading register 12 Arduino 0
Received reply: 00 03 00 0c 03 ff a8 c4 
Writing register 2 on Arduino 1
Received reply: 01 06 00 02 03 ff ba 68 
Reading register 3 on Arduino 1
Received reply: 01 03 00 03 05 64 71 b7 
Reading register 4 on Arduino 1
Received reply: 01 03 00 04 05 8c fe 06 
Reading register 11 on Arduino 0
Received reply: 00 03 00 0b 03 ff 69 75 
Writing register 1 on Arduino 1
Received reply: 01 06 00 01 03 ff ba 98 
Reading register 12 Arduino 0
Received reply: 00 03 00 0c 03 ff a8 c4 
Writing register 2 on Arduino 1
Received reply: 01 06 00 02 03 ff ba 68 
Reading register 3 on Arduino 1
Received reply: 01 03 00 03 05 6e 76 37 
Reading register 4 on Arduino 1
Received reply: 01 03 00 04 05 6e b7 86 
Reading register 11 on Arduino 0
Received reply: 00 03 00 0b 03 ff 69 75 
Writing register 1 on Arduino 1
Received reply: 01 06 00 01 03 ff ba 98 
Reading register 12 Arduino 0
Received reply: 00 03 00 0c 03 ff a8 c4 
Writing register 2 on Arduino 1
Received reply: 01 06 00 02 03 ff ba 68 
Reading register 3 on Arduino 1
Received reply: 01 03 00 03 05 78 b8 b6 
Reading register 4 on Arduino 1
Received reply: 01 03 00 04 05 78 79 07 
Reading register 11 on Arduino 0
Received reply: 00 03 00 0b 03 ff 69 75 
Writing register 1 on Arduino 1
Received reply: 01 06 00 01 03 ff ba 98 
Reading register 12 Arduino 0
Received reply: 00 03 00 0c 03 ff a8 c4 
Writing register 2 on Arduino 1
Received reply: 01 06 00 02 03 ff ba 68 
Reading register 3 on Arduino 1
Received reply: 01 03 00 03 05 6e 76 37 
Reading register 4 on Arduino 1
Received reply: 01 03 00 04 05 82 3a 87 
Reading register 11 on Arduino 0
Received reply: 00 03 00 0b 03 ff 69 75 
Writing register 1 on Arduino 1
Received reply: 01 06 00 01 03 ff ba 98 
Reading register 12 Arduino 0
Received reply: 00 03 00 0c 03 ff a8 c4 
Writing register 2 on Arduino 1
Received reply: 01 06 00 02 03 ff ba 68 
Reading register 3 on Arduino 1
Received reply: 01 03 00 03 05 78 b8 b6 
Reading register 4 on Arduino 1
Received reply: 01 03 00 04 05 64 b0 06 
Reading register 11 on Arduino 0
Received reply: 00 03 00 0b 03 ff 69 75 
Writing register 1 on Arduino 1
Received reply: 01 06 00 01 03 ff ba 98 
Reading register 12 Arduino 0
Received reply: 00 03 00 0c 03 ff a8 c4 
Writing register 2 on Arduino 1
Received reply: 01 06 00 02 03 ff ba 68 
Reading register 3 on Arduino 1
Received reply: 01 03 00 03 05 8c 3f b7 
Reading register 4 on Arduino 1
Received reply: 01 03 00 04 05 82 3a 87 
Reading register 11 on Arduino 0
Received reply: 00 03 00 0b 03 ff 69 75 
Writing register 1 on Arduino 1
Received reply: 01 06 00 01 03 ff ba 98 
Reading register 12 Arduino 0
Received reply: 00 03 00 0c 03 ff a8 c4 
Writing register 2 on Arduino 1
Received reply: 01 06 00 02 03 ff ba 68 
Reading register 3 on Arduino 1
Received reply: 01 03 00 03 05 64 71 b7 
Reading register 4 on Arduino 1
Received reply: 01 03 00 04 05 82 3a 87 
Reading register 11 on Arduino 0
Received reply: 00 03 00 0b 03 ff 69 75 
Writing register 1 on Arduino 1
Received reply: 01 06 00 01 03 ff ba 98 
Reading register 12 Arduino 0
Received reply: 00 03 00 0c 03 ff a8 c4 
Writing register 2 on Arduino 1
Received reply: 01 06 00 02 03 ff ba 68 
Reading register 3 on Arduino 1
Received reply: 01 03 00 03 05 78 b8 b6 
Reading register 4 on Arduino 1
Received reply: 01 03 00 04 05 6e b7 86 
Reading register 11 on Arduino 0
Received reply: 00 03 00 0b 03 ff 69 75 
Writing register 1 on Arduino 1
Received reply: 01 06 00 01 03 ff ba 98 
Reading register 12 Arduino 0
Received reply: 00 03 00 0c 03 ff a8 c4 
Writing register 2 on Arduino 1
Received reply: 01 06 00 02 03 ff ba 68 
Reading register 3 on Arduino 1
Received reply: 01 03 00 03 05 82 fb 36 
Reading register 4 on Arduino 1
Received reply: 01 03 00 04 05 6e b7 86 
Reading register 11 on Arduino 0
Received reply: 00 03 00 0b 03 ff 69 75 
Writing register 1 on Arduino 1
Received reply: 01 06 00 01 03 ff ba 98 
Reading register 12 Arduino 0
Received reply: 00 03 00 0c 03 ff a8 c4 
Writing register 2 on Arduino 1
Received reply: 01 06 00 02 03 ff ba 68 
Reading register 3 on Arduino 1
Received reply: 01 03 00 03 05 78 b8 b6 
Reading register 4 on Arduino 1
Received reply: 01 03 00 04 05 78 79 07 
Reading register 11 on Arduino 0
Received reply: 00 03 00 0b 03 ff 69 75 
Writing register 1 on Arduino 1
Received reply: 01 06 00 01 03 ff ba 98 
Reading register 12 Arduino 0
Received reply: 00 03 00 0c 03 ff a8 c4 
Writing register 2 on Arduino 1
Received reply: 01 06 00 02 03 ff ba 68 
Reading register 3 on Arduino 1
Received reply: 01 03 00 03 05 78 b8 b6 
Reading register 4 on Arduino 1
Received reply: 01 03 00 04 05 6e b7 86 
Reading register 11 on Arduino 0
Received reply: 00 03 00 0b 03 ff 69 75 
Writing register 1 on Arduino 1
Received reply: 01 06 00 01 03 ff ba 98 
Reading register 12 Arduino 0
Received reply: 00 03 00 0c 03 ff a8 c4 
Writing register 2 on Arduino 1
Received reply: 01 06 00 02 03 ff ba 68 
Reading register 3 on Arduino 1
Received reply: 01 03 00 03 05 82 fb 36 
Reading register 4 on Arduino 1
Received reply: 01 03 00 04 05 96 35 87 
Reading register 11 on Arduino 0
Received reply: 00 03 00 0b 03 ff 69 75 
Writing register 1 on Arduino 1
Received reply: 01 06 00 01 03 ff ba 98 
Reading register 12 Arduino 0
Received reply: 00 03 00 0c 03 ff a8 c4 
Writing register 2 on Arduino 1
Received reply: 01 06 00 02 03 ff ba 68 
Reading register 3 on Arduino 1
Received reply: 01 03 00 03 05 82 fb 36 
Reading register 4 on Arduino 1
Received reply: 01 03 00 04 05 8c fe 06 
Reading register 11 on Arduino 0
Received reply: 00 03 00 0b 03 ff 69 75 
Writing register 1 on Arduino 1
Received reply: 01 06 00 01 03 ff ba 98 
Reading register 12 Arduino 0
Received reply: 00 03 00 0c 03 ff a8 c4 
Writing register 2 on Arduino 1
Received reply: 01 06 00 02 03 ff ba 68 
Reading register 3 on Arduino 1
Received reply: 01 03 00 03 05 78 b8 b6 
Reading register 4 on Arduino 1
Received reply: 01 03 00 04 05 82 3a 87 
Reading register 11 on Arduino 0
Received reply: 00 03 00 0b 03 ff 69 75 
Writing register 1 on Arduino 1
Received reply: 01 06 00 01 03 ff ba 98 
Reading register 12 Arduino 0
Received reply: 00 03 00 0c 03 ff a8 c4 
Writing register 2 on Arduino 1
Received reply: 01 06 00 02 03 ff ba 68 
Reading register 3 on Arduino 1
Received reply: 01 03 00 03 05 8c 3f b7 
Reading register 4 on Arduino 1
Received reply: 01 03 00 04 05 96 35 87 
Reading register 11 on Arduino 0
Received reply: 00 03 00 0b 03 ff 69 75 
Writing register 1 on Arduino 1
Received reply: 01 06 00 01 03 ff ba 98 
Reading register 12 Arduino 0
Received reply: 00 03 00 0c 03 ff a8 c4 
Writing register 2 on Arduino 1
Received reply: 01 06 00 02 03 ff ba 68 
Reading register 3 on Arduino 1
Received reply: 01 03 00 03 05 78 b8 b6 
Reading register 4 on Arduino 1
Received reply: 01 03 00 04 05 8c fe 06 
Reading register 11 on Arduino 0
Received reply: 00 03 00 0b 03 ff 69 75 
Writing register 1 on Arduino 1
Received reply: 01 06 00 01 03 ff ba 98 
Reading register 12 Arduino 0
Received reply: 00 03 00 0c 03 ff a8 c4 
Writing register 2 on Arduino 1
Received reply: 01 06 00 02 03 ff ba 68 
Reading register 3 on Arduino 1
Received reply: 01 03 00 03 05 8c 3f b7 
Reading register 4 on Arduino 1
Received reply: 01 03 00 04 05 8c fe 06 
Reading register 11 on Arduino 0
Received reply: 00 03 00 0b 03 ff 69 75 
Writing register 1 on Arduino 1
Received reply: 01 06 00 01 03 ff ba 98 
Reading register 12 Arduino 0
Received reply: 00 03 00 0c 03 ff a8 c4 
Writing register 2 on Arduino 1
Received reply: 01 06 00 02 03 ff ba 68 
Reading register 3 on Arduino 1
Received reply: 01 03 00 03 05 8c 3f b7 
Reading register 4 on Arduino 1
Received reply: 01 03 00 04 05 82 3a 87 
Reading register 11 on Arduino 0
Received reply: 00 03 00 0b 03 ff 69 75 
Writing register 1 on Arduino 1
Received reply: 01 06 00 01 03 ff ba 98 
Reading register 12 Arduino 0
Received reply: 00 03 00 0c 03 ff a8 c4 
Writing register 2 on Arduino 1
Received reply: 01 06 00 02 03 ff ba 68 
Reading register 3 on Arduino 1
Received reply: 01 03 00 03 05 78 b8 b6 
Reading register 4 on Arduino 1
Received reply: 01 03 00 04 05 96 35 87 
Reading register 11 on Arduino 0
Received reply: 00 03 00 0b 03 ff 69 75 
Writing register 1 on Arduino 1
Received reply: 01 06 00 01 03 ff ba 98 
Reading register 12 Arduino 0
Received reply: 00 03 00 0c 03 ff a8 c4 
Writing register 2 on Arduino 1
Received reply: 01 06 00 02 03 ff ba 68 
Reading register 3 on Arduino 1
Received reply: 01 03 00 03 05 8c 3f b7 
Reading register 4 on Arduino 1
Received reply: 01 03 00 04 05 78 79 07 
Reading register 11 on Arduino 0
Received reply: 00 03 00 0b 03 ff 69 75 
Writing register 1 on Arduino 1
Received reply: 01 06 00 01 03 ff ba 98 
Reading register 12 Arduino 0
Received reply: 00 03 00 0c 03 ff a8 c4 
Writing register 2 on Arduino 1
Received reply: 01 06 00 02 03 ff ba 68 
Reading register 3 on Arduino 1
Received reply: 01 03 00 03 05 82 fb 36 
Reading register 4 on Arduino 1
Received reply: 01 03 00 04 05 96 35 87 
Reading register 11 on Arduino 0
Received reply: 00 03 00 0b 03 ff 69 75 
Writing register 1 on Arduino 1
Received reply: 01 06 00 01 03 ff ba 98 
Reading register 12 Arduino 0
Received reply: 00 03 00 0c 03 ff a8 c4 
Writing register 2 on Arduino 1
Received reply: 01 06 00 02 03 ff ba 68 
Reading register 3 on Arduino 1
Received reply: 01 03 00 03 05 8c 3f b7 
Reading register 4 on Arduino 1
Received reply: 01 03 00 04 05 78 79 07 
Reading register 11 on Arduino 0
Received reply: 00 03 00 0b 03 ff 69 75 
Writing register 1 on Arduino 1
Received reply: 01 06 00 01 03 ff ba 98 
Reading register 12 Arduino 0
Received reply: 00 03 00 0c 03 ff a8 c4 
Writing register 2 on Arduino 1
Received reply: 01 06 00 02 03 ff ba 68 
Reading register 3 on Arduino 1
Received reply: 01 03 00 03 05 8c 3f b7 
Reading register 4 on Arduino 1
Received reply: 01 03 00 04 05 aa 24 87 
Reading register 11 on Arduino 0
Received reply: 00 03 00 0b 03 ff 69 75 
Writing register 1 on Arduino 1
Received reply: 01 06 00 01 03 ff ba 98 
Reading register 12 Arduino 0
Received reply: 00 03 00 0c 03 ff a8 c4 
Writing register 2 on Arduino 1
Received reply: 01 06 00 02 03 ff ba 68 
Reading register 3 on Arduino 1
Received reply: 01 03 00 03 05 82 fb 36 
Reading register 4 on Arduino 1
Received reply: 01 03 00 04 05 78 79 07 
Reading register 11 on Arduino 0
Received reply: 00 03 00 0b 03 ff 69 75 
Writing register 1 on Arduino 1
Received reply: 01 06 00 01 03 ff ba 98 
Reading register 12 Arduino 0
Received reply: 00 03 00 0c 03 ff a8 c4 
Writing register 2 on Arduino 1
Received reply: 01 06 00 02 03 ff ba 68 
Reading register 3 on Arduino 1
Received reply: 01 03 00 03 05 8c 3f b7 
Reading register 4 on Arduino 1
Received reply: 01 03 00 04 05 78 79 07 
Reading register 11 on Arduino 0
Received reply: 00 03 00 0b 03 ff 69 75 
Writing register 1 on Arduino 1
Received reply: 01 06 00 01 03 ff ba 98 
Reading register 12 Arduino 0
Received reply: 00 03 00 0c 03 ff a8 c4 
Writing register 2 on Arduino 1
Received reply: 01 06 00 02 03 ff ba 68 
Reading register 3 on Arduino 1
Received reply: 01 03 00 03 05 82 fb 36 
Reading register 4 on Arduino 1
Received reply: 01 03 00 04 05 82 3a 87 
Reading register 11 on Arduino 0
Received reply: 00 03 00 0b 03 ff 69 75 
Writing register 1 on Arduino 1
Received reply: 01 06 00 01 03 ff ba 98 
Reading register 12 Arduino 0
Received reply: 00 03 00 0c 03 ff a8 c4 
Writing register 2 on Arduino 1
Received reply: 01 06 00 02 03 ff ba 68 
Reading register 3 on Arduino 1
Received reply: 01 03 00 03 05 78 b8 b6 
Reading register 4 on Arduino 1
Received reply: 01 03 00 04 05 78 79 07 
Reading register 11 on Arduino 0
Received reply: 00 03 00 0b 03 ff 69 75 
Writing register 1 on Arduino 1
Received reply: 01 06 00 01 03 ff ba 98 
Reading register 12 Arduino 0
Received reply: 00 03 00 0c 03 ff a8 c4 
Writing register 2 on Arduino 1
Received reply: 01 06 00 02 03 ff ba 68 
Reading register 3 on Arduino 1
Received reply: 01 03 00 03 05 be ea 36 
Reading register 4 on Arduino 1
Received reply: 01 03 00 04 05 be 2b 87 
Reading register 11 on Arduino 0
Received reply: 00 03 00 0b 03 ff 69 75 
Writing register 1 on Arduino 1
Received reply: 01 06 00 01 03 ff ba 98 
Reading register 12 Arduino 0
Received reply: 00 03 00 0c 03 ff a8 c4 
Writing register 2 on Arduino 1
Received reply: 01 06 00 02 03 ff ba 68 
Reading register 3 on Arduino 1
Received reply: 01 03 00 03 05 96 f4 36 
Reading register 4 on Arduino 1
Received reply: 01 03 00 04 05 a0 23 07 
Reading register 11 on Arduino 0
Received reply: 00 03 00 0b 03 ff 69 75 
Writing register 1 on Arduino 1
Received reply: 01 06 00 01 03 ff ba 98 
Reading register 12 Arduino 0
Received reply: 00 03 00 0c 03 ff a8 c4 
Writing register 2 on Arduino 1
Received reply: 01 06 00 02 03 ff ba 68 
Reading register 3 on Arduino 1
Received reply: 01 03 00 03 05 a0 e2 b6 
Reading register 4 on Arduino 1
Received reply: 01 03 00 04 05 8c fe 06 
Reading register 11 on Arduino 0
Received reply: 00 03 00 0b 03 ff 69 75 
Writing register 1 on Arduino 1
Received reply: 01 06 00 01 03 ff ba 98 
Reading register 12 Arduino 0
Received reply: 00 03 00 0c 03 ff a8 c4 
Writing register 2 on Arduino 1
Received reply: 01 06 00 02 03 ff ba 68 
Reading register 3 on Arduino 1
Received reply: 01 03 00 03 05 96 f4 36 
Reading register 4 on Arduino 1
Received reply: 01 03 00 04 05 96 35 87 
Reading register 11 on Arduino 0
Received reply: 00 03 00 0b 03 ff 69 75 
Writing register 1 on Arduino 1
Received reply: 01 06 00 01 03 ff ba 98 
Reading register 12 Arduino 0
Received reply: 00 03 00 0c 03 ff a8 c4 
Writing register 2 on Arduino 1
Received reply: 01 06 00 02 03 ff ba 68 
Reading register 3 on Arduino 1
Received reply: 01 03 00 03 05 96 f4 36 
Reading register 4 on Arduino 1
Received reply: 01 03 00 04 05 96 35 87 
Reading register 11 on Arduino 0
Received reply: 00 03 00 0b 03 ff 69 75 
Writing register 1 on Arduino 1
Received reply: 01 06 00 01 03 ff ba 98 
Reading register 12 Arduino 0
Received reply: 00 03 00 0c 03 ff a8 c4 
Writing register 2 on Arduino 1
Received reply: 01 06 00 02 03 ff ba 68 
Reading register 3 on Arduino 1
Received reply: 01 03 00 03 05 a0 e2 b6 
Reading register 4 on Arduino 1
Received reply: 01 03 00 04 05 a0 23 07 
Reading register 11 on Arduino 0
Received reply: 00 03 00 0b 03 ff 69 75 
Writing register 1 on Arduino 1
Received reply: 01 06 00 01 03 ff ba 98 
Reading register 12 Arduino 0
Received reply: 00 03 00 0c 03 ff a8 c4 
Writing register 2 on Arduino 1
Received reply: 01 06 00 02 03 ff ba 68 
Reading register 3 on Arduino 1
Received reply: 01 03 00 03 05 a0 e2 b6 
Reading register 4 on Arduino 1
Received reply: 01 03 00 04 05 8c fe 06 
Reading register 11 on Arduino 0
Received reply: 00 03 00 0b 03 ff 69 75 
Writing register 1 on Arduino 1
Received reply: 01 06 00 01 03 ff ba 98 
Reading register 12 Arduino 0
Received reply: 00 03 00 0c 03 ff a8 c4 
Writing register 2 on Arduino 1
Received reply: 01 06 00 02 03 ff ba 68 
Reading register 3 on Arduino 1
Received reply: 01 03 00 03 05 96 f4 36 
Reading register 4 on Arduino 1
Received reply: 01 03 00 04 05 96 35 87 
Reading register 11 on Arduino 0
Received reply: 00 03 00 0b 03 ff 69 75 
Writing register 1 on Arduino 1
Received reply: 01 06 00 01 03 ff ba 98 
Reading register 12 Arduino 0
Received reply: 00 03 00 0c 03 ff a8 c4 
Writing register 2 on Arduino 1
Received reply: 01 06 00 02 03 ff ba 68 
Reading register 3 on Arduino 1
Received reply: 01 03 00 03 05 a0 e2 b6 
Reading register 4 on Arduino 1
Received reply: 01 03 00 04 05 a0 23 07 
Reading register 11 on Arduino 0
Received reply: 00 03 00 0b 03 ff 69 75 
Writing register 1 on Arduino 1
Received reply: 01 06 00 01 03 ff ba 98 
Reading register 12 Arduino 0
Received reply: 00 03 00 0c 03 ff a8 c4 
Writing register 2 on Arduino 1
Received reply: 01 06 00 02 03 ff ba 68 
Reading register 3 on Arduino 1
Received reply: 01 03 00 03 05 a0 e2 b6 
Reading register 4 on Arduino 1
Received reply: 01 03 00 04 05 96 35 87 
Reading register 11 on Arduino 0
Received reply: 00 03 00 0b 03 ff 69 75 
Writing register 1 on Arduino 1
Received reply: 01 06 00 01 03 ff ba 98 
Reading register 12 Arduino 0
Received reply: 00 03 00 0c 03 ff a8 c4 
Writing register 2 on Arduino 1
Received reply: 01 06 00 02 03 ff ba 68 
Reading register 3 on Arduino 1
Received reply: 01 03 00 03 05 a0 e2 b6 
Reading register 4 on Arduino 1
Received reply: 01 03 00 04 05 a0 23 07 
Reading register 11 on Arduino 0
Received reply: 00 03 00 0b 03 ff 69 75 
Writing register 1 on Arduino 1
Received reply: 01 06 00 01 03 ff ba 98 
Reading register 12 Arduino 0
Received reply: 00 03 00 0c 03 ff a8 c4 
Writing register 2 on Arduino 1
Received reply: 01 06 00 02 03 ff ba 68 
Reading register 3 on Arduino 1
Received reply: 01 03 00 03 05 96 f4 36 
Reading register 4 on Arduino 1
Received reply: 01 03 00 04 05 96 35 87 
Reading register 11 on Arduino 0
Received reply: 00 03 00 0b 03 ff 69 75 
Writing register 1 on Arduino 1
Received reply: 01 06 00 01 03 ff ba 98 
Reading register 12 Arduino 0
Received reply: 00 03 00 0c 03 ff a8 c4 
Writing register 2 on Arduino 1
Received reply: 01 06 00 02 03 ff ba 68 
Reading register 3 on Arduino 1
Received reply: 01 03 00 03 05 a0 e2 b6 
Reading register 4 on Arduino 1
Received reply: 01 03 00 04 05 96 35 87 
Reading register 11 on Arduino 0
Received reply: 00 03 00 0b 03 ff 69 75 
Writing register 1 on Arduino 1
Received reply: 01 06 00 01 03 ff ba 98 
Reading register 12 Arduino 0
Received reply: 00 03 00 0c 03 ff a8 c4 
Writing register 2 on Arduino 1
Received reply: 01 06 00 02 03 ff ba 68 
Reading register 3 on Arduino 1
Received reply: 01 03 00 03 05 96 f4 36 
Reading register 4 on Arduino 1
Received reply: 01 03 00 04 05 a0 23 07 
Reading register 11 on Arduino 0
Received reply: 00 03 00 0b 03 ff 69 75 
Writing register 1 on Arduino 1
Received reply: 01 06 00 01 03 ff ba 98 
Reading register 12 Arduino 0
Received reply: 00 03 00 0c 03 ff a8 c4 
Writing register 2 on Arduino 1
Received reply: 01 06 00 02 03 ff ba 68 
Reading register 3 on Arduino 1
Received reply: 01 03 00 03 05 a0 e2 b6 
Reading register 4 on Arduino 1
Received reply: 01 03 00 04 05 96 35 87 
Reading register 11 on Arduino 0
Received reply: 00 03 00 0b 03 ff 69 75 
Writing register 1 on Arduino 1
Received reply: 01 06 00 01 03 ff ba 98 
Reading register 12 Arduino 0
Received reply: 00 03 00 0c 03 ff a8 c4 
Writing register 2 on Arduino 1
Received reply: 01 06 00 02 03 ff ba 68 
Reading register 3 on Arduino 1
Received reply: 01 03 00 03 05 a0 e2 b6 
Reading register 4 on Arduino 1
Received reply: 01 03 00 04 05 aa 24 87 
Reading register 11 on Arduino 0
Received reply: 00 03 00 0b 03 ff 69 75 
Writing register 1 on Arduino 1
Received reply: 01 06 00 01 03 ff ba 98 
Reading register 12 Arduino 0
Received reply: 00 03 00 0c 03 ff a8 c4 
Writing register 2 on Arduino 1
Received reply: 01 06 00 02 03 ff ba 68 
Reading register 3 on Arduino 1
Received reply: 01 03 00 03 05 a0 e2 b6 
Reading register 4 on Arduino 1
Received reply: 01 03 00 04 05 b4 2c 07 
Reading register 11 on Arduino 0
Received reply: 00 03 00 0b 03 ff 69 75 
Writing register 1 on Arduino 1
Received reply: 01 06 00 01 03 ff ba 98 
Reading register 12 Arduino 0
Received reply: 00 03 00 0c 03 ff a8 c4 
Writing register 2 on Arduino 1
Received reply: 01 06 00 02 03 ff ba 68 
Reading register 3 on Arduino 1
Received reply: 01 03 00 03 05 96 f4 36 
Reading register 4 on Arduino 1
Received reply: 01 03 00 04 05 82 3a 87 
Reading register 11 on Arduino 0
Received reply: 00 03 00 0b 03 ff 69 75 
Writing register 1 on Arduino 1
Received reply: 01 06 00 01 03 ff ba 98 
Reading register 12 Arduino 0
Received reply: 00 03 00 0c 03 ff a8 c4 
Writing register 2 on Arduino 1
Received reply: 01 06 00 02 03 ff ba 68 
Reading register 3 on Arduino 1
Received reply: 01 03 00 03 05 a0 e2 b6 
Reading register 4 on Arduino 1
Received reply: 01 03 00 04 05 a0 23 07 
Reading register 11 on Arduino 0
Received reply: 00 03 00 0b 03 ff 69 75 
Writing register 1 on Arduino 1
Received reply: 01 06 00 01 03 ff ba 98 
Reading register 12 Arduino 0
Received reply: 00 03 00 0c 03 ff a8 c4 
Writing register 2 on Arduino 1
Received reply: 01 06 00 02 03 ff ba 68 
Reading register 3 on Arduino 1
Received reply: 01 03 00 03 05 96 f4 36 
Reading register 4 on Arduino 1
Received reply: 01 03 00 04 05 b4 2c 07 
Reading register 11 on Arduino 0
Received reply: 00 03 00 0b 03 ff 69 75 
Writing register 1 on Arduino 1
Received reply: 01 06 00 01 03 ff ba 98 
Reading register 12 Arduino 0
Received reply: 00 03 00 0c 03 ff a8 c4 
Writing register 2 on Arduino 1
Received reply: 01 06 00 02 03 ff ba 68 
Reading register 3 on Arduino 1
Received reply: 01 03 00 03 05 a0 e2 b6 
Reading register 4 on Arduino 1
Received reply: 01 03 00 04 05 a0 23 07 
Reading register 11 on Arduino 0
Received reply: 00 03 00 0b 03 ff 69 75 
Writing register 1 on Arduino 1
Received reply: 01 06 00 01 03 ff ba 98 
Reading register 12 Arduino 0
Received reply: 00 03 00 0c 03 ff a8 c4 
Writing register 2 on Arduino 1
Received reply: 01 06 00 02 03 ff ba 68 
Reading register 3 on Arduino 1
Received reply: 01 03 00 03 05 96 f4 36 
Reading register 4 on Arduino 1
Received reply: 01 03 00 04 05 a0 23 07 
Reading register 11 on Arduino 0
Received reply: 00 03 00 0b 03 ff 69 75 
Writing register 1 on Arduino 1
Received reply: 01 06 00 01 03 ff ba 98 
Reading register 12 Arduino 0
Received reply: 00 03 00 0c 03 ff a8 c4 
Writing register 2 on Arduino 1
Received reply: 01 06 00 02 03 ff ba 68 
Reading register 3 on Arduino 1
Received reply: 01 03 00 03 05 aa e5 36 
Reading register 4 on Arduino 1
Received reply: 01 03 00 04 05 96 35 87 
Reading register 11 on Arduino 0
Received reply: 00 03 00 0b 03 ff 69 75 
Writing register 1 on Arduino 1
Received reply: 01 06 00 01 03 ff ba 98 
Reading register 12 Arduino 0
Received reply: 00 03 00 0c 03 ff a8 c4 
Writing register 2 on Arduino 1
Received reply: 01 06 00 02 03 ff ba 68 
Reading register 3 on Arduino 1
Received reply: 01 03 00 03 05 96 f4 36 
Reading register 4 on Arduino 1
Received reply: 01 03 00 04 05 96 35 87 
Reading register 11 on Arduino 0
Received reply: 00 03 00 0b 03 ff 69 75 
Writing register 1 on Arduino 1
Received reply: 01 06 00 01 03 ff ba 98 
Reading register 12 Arduino 0
Received reply: 00 03 00 0c 03 ff a8 c4 
Writing register 2 on Arduino 1
Received reply: 01 06 00 02 03 ff ba 68 
Reading register 3 on Arduino 1
Received reply: 01 03 00 03 05 a0 e2 b6 
Reading register 4 on Arduino 1
Received reply: 01 03 00 04 05 aa 24 87 
Reading register 11 on Arduino 0
Received reply: 00 03 00 0b 03 ff 69 75 
Writing register 1 on Arduino 1
Received reply: 01 06 00 01 03 ff ba 98 
Reading register 12 Arduino 0
Received reply: 00 03 00 0c 03 ff a8 c4 
Writing register 2 on Arduino 1
Received reply: 01 06 00 02 03 ff ba 68 
Reading register 3 on Arduino 1
Received reply: 01 03 00 03 05 a0 e2 b6 
Reading register 4 on Arduino 1
Received reply: 01 03 00 04 05 8c fe 06 
Reading register 11 on Arduino 0
Received reply: 00 03 00 0b 03 ff 69 75 
Writing register 1 on Arduino 1
Received reply: 01 06 00 01 03 ff ba 98 
Reading register 12 Arduino 0
Received reply: 00 03 00 0c 03 ff a8 c4 
Writing register 2 on Arduino 1
Received reply: 01 06 00 02 03 ff ba 68 
Reading register 3 on Ardui